{"name":"Consulta exitosa del usuario","id":"operaciones-con-el-usuario;consulta-exitosa-del-usuario","testSteps":[{"number":1,"description":"Cuando el usuario consume en endpoint","duration":3932,"startTime":"2024-07-23T00:44:47.567295500-05:00[America/Bogota]","result":"SUCCESS","precondition":false,"level":0,"children":[{"number":2,"description":"Usuario obtener usuario task","duration":3650,"startTime":"2024-07-23T00:44:47.839128900-05:00[America/Bogota]","result":"SUCCESS","precondition":false,"level":1,"children":[{"number":3,"description":"usuario executes a GET on the resource /api/users?page\u003d2","duration":3548,"startTime":"2024-07-23T00:44:47.932070200-05:00[America/Bogota]","result":"SUCCESS","precondition":false,"level":2,"children":[{"number":4,"description":"GET https://reqres.in/api/users?page\u003d2","duration":0,"startTime":"2024-07-23T00:44:51.478719300-05:00[America/Bogota]","result":"SUCCESS","restQuery":{"method":"GET","path":"https://reqres.in/api/users?page\u003d2","content":"","contentType":"application/json","requestHeaders":"Accept\u003d*/*\r\n\t\t\t\tContent-Type\u003dapplication/json","requestCookies":"","responseHeaders":"Date: Tue, 23 Jul 2024 05:44:51 GMT\r\nContent-Type: application/json; charset\u003dutf-8\r\nTransfer-Encoding: chunked\r\nConnection: keep-alive\r\nReport-To: {\"group\":\"heroku-nel\",\"max_age\":3600,\"endpoints\":[{\"url\":\"https://nel.heroku.com/reports?ts\u003d1721056904\u0026sid\u003dc4c9725f-1ab0-44d8-820f-430df2718e11\u0026s\u003dmV40gzvPpALgz1puihz0MEPt%2BY6gRQ6t5VC2skkcO2w%3D\"}]}\r\nReporting-Endpoints: heroku-nel\u003dhttps://nel.heroku.com/reports?ts\u003d1721056904\u0026sid\u003dc4c9725f-1ab0-44d8-820f-430df2718e11\u0026s\u003dmV40gzvPpALgz1puihz0MEPt%2BY6gRQ6t5VC2skkcO2w%3D\r\nNel: {\"report_to\":\"heroku-nel\",\"max_age\":3600,\"success_fraction\":0.005,\"failure_fraction\":0.05,\"response_headers\":[\"Via\"]}\r\nX-Powered-By: Express\r\nAccess-Control-Allow-Origin: *\r\nEtag: W/\"406-ut0vzoCuidvyMf8arZpMpJ6ZRDw\"\r\nVia: 1.1 vegur\r\nCache-Control: max-age\u003d14400\r\nCF-Cache-Status: HIT\r\nAge: 3776\r\nVary: Accept-Encoding\r\nServer: cloudflare\r\nCF-RAY: 8a795c68d9135d10-MIA\r\nContent-Encoding: gzip\r","responseCookies":"\r","responseBody":"{\n    \"page\": 2,\n    \"per_page\": 6,\n    \"total\": 12,\n    \"total_pages\": 2,\n    \"data\": [\n        {\n            \"id\": 7,\n            \"email\": \"michael.lawson@reqres.in\",\n            \"first_name\": \"Michael\",\n            \"last_name\": \"Lawson\",\n            \"avatar\": \"https://reqres.in/img/faces/7-image.jpg\"\n        },\n        {\n            \"id\": 8,\n            \"email\": \"lindsay.ferguson@reqres.in\",\n            \"first_name\": \"Lindsay\",\n            \"last_name\": \"Ferguson\",\n            \"avatar\": \"https://reqres.in/img/faces/8-image.jpg\"\n        },\n        {\n            \"id\": 9,\n            \"email\": \"tobias.funke@reqres.in\",\n            \"first_name\": \"Tobias\",\n            \"last_name\": \"Funke\",\n            \"avatar\": \"https://reqres.in/img/faces/9-image.jpg\"\n        },\n        {\n            \"id\": 10,\n            \"email\": \"byron.fields@reqres.in\",\n            \"first_name\": \"Byron\",\n            \"last_name\": \"Fields\",\n            \"avatar\": \"https://reqres.in/img/faces/10-image.jpg\"\n        },\n        {\n            \"id\": 11,\n            \"email\": \"george.edwards@reqres.in\",\n            \"first_name\": \"George\",\n            \"last_name\": \"Edwards\",\n            \"avatar\": \"https://reqres.in/img/faces/11-image.jpg\"\n        },\n        {\n            \"id\": 12,\n            \"email\": \"rachel.howell@reqres.in\",\n            \"first_name\": \"Rachel\",\n            \"last_name\": \"Howell\",\n            \"avatar\": \"https://reqres.in/img/faces/12-image.jpg\"\n        }\n    ],\n    \"support\": {\n        \"url\": \"https://reqres.in/#support-heading\",\n        \"text\": \"To keep ReqRes free, contributions towards server costs are appreciated!\"\n    }\n}","statusCode":200},"precondition":false,"level":3}]}]}]},{"number":5,"description":"Entonces el usuario podra ver el status code 200","duration":100,"startTime":"2024-07-23T00:44:51.503704600-05:00[America/Bogota]","result":"SUCCESS","precondition":false,"level":0,"children":[{"number":6,"description":"Then el codigo de respuesta should be (200)","duration":7,"startTime":"2024-07-23T00:44:51.588651800-05:00[America/Bogota]","result":"SUCCESS","precondition":false,"level":1}]}],"userStory":{"id":"operaciones-con-el-usuario","storyName":"Operaciones con el usuario","displayName":"Operaciones con el usuario","path":"file:///L:/Daniel/SQA/Automatizaciones/Intellij/Semillero%20y%20practicas/EspacioConocimientoRest/src/test/resources/Features/Usuario.feature","type":"feature","qualifiedTag":{"name":"Operaciones con el usuario","type":"feature","displayName":"Operaciones con el usuario"}},"featureTag":{"name":"Operaciones con el usuario","type":"feature","displayName":"Operaciones con el usuario"},"title":"Consulta exitosa del usuario","description":"","tags":[{"name":"GetUser","type":"tag","displayName":"GetUser"},{"name":"Operaciones con el usuario","type":"feature","displayName":"Operaciones con el usuario"}],"allTags":[{"name":"GetUser","type":"tag","displayName":"GetUser"},{"name":"Operaciones con el usuario","type":"feature","displayName":"Operaciones con el usuario"}],"startTime":"2024-07-23T00:44:47.414389300-05:00[America/Bogota]","duration":4192,"projectKey":"","isManualTestingUpToDate":false,"context":"windows","manual":false,"testSource":"Cucumber","actors":[{"name":"usuario","can":["call an API at https://reqres.in"]}],"result":"SUCCESS"}